.label move_starter=$8027
.label exomized_data=$8084
.label dst=$107
.label src=$104
.label loop=$104
.label main_file_end=$89f7
.label vic_regs_data=$8054
.label loop1=$8029
.label starter_end=$11f
.label launcher=$8009
.label starter_start=$100
